COMPSCIX 415.2 Homework 7
…
##          term estimate std.error statistic      p.value
## 1 (Intercept) 6.694060 0.8711790  7.683909 2.270460e-08
## 2           x 1.456668 0.1404032 10.374889 4.244805e-11

glance(sim_lm)

##   r.squared adj.r.squared    sigma statistic      p.value df    logLik
## 1 0.7935687     0.7861961 2.208842  107.6383 4.244805e-11  2 -65.30731
##        AIC      BIC deviance df.residual
## 1 136.6146 140.8182 136.6115          28

sim1a_test

## # A tibble: 30 x 2
##        x      y
##    <int>  <dbl>
##  1     1  5.54 
##  2     1  8.62 
##  3     1  8.24 
##  4     2  8.96 
##  5     2  0.206
##  6     2  7.63 
##  7     3 10.4  
##  8     3 10.8  
##  9     3 13.9  
## 10     4 11.7  
## # ... with 20 more rows
…
